[
  {
    "id": "29fe8f3b-a944-38c1-b41d-cbbfe51ecaa6",
    "name": "entries",
    "label": "Entries",
    "required": false,
    "locked": false,
    "occurrence": {
      "min": null,
      "max": null,
      "sorting_label_field": null,
      "default": 3
    },
    "children": [
      {
        "id": "7879791a-3b20-a468-2404-60f446fcb5ac",
        "name": "title",
        "label": "Title",
        "required": false,
        "locked": false,
        "validation_regex": "",
        "placeholder": "Can I change my plan later?",
        "allow_new_line": false,
        "show_emoji_picker": true,
        "type": "text",
        "default": "Can I change my plan later?"
      },
      {
        "id": "18a5760e-acd6-2dd6-7b61-4d5760ff49be",
        "name": "description",
        "label": "Description",
        "required": false,
        "locked": false,
        "type": "richtext",
        "default": "<p>Lorem ipsum dolor sit amet, consectetur adipiscing elit, sed do eiusmod tempor incididunt ut labore et dolore magna aliqua. Ut enim ad minim veniam, quis nostrud exercitation ullamco laboris nisi ut aliquip ex ea commodo consequat. Duis aute irure dolor in reprehenderit in voluptate velit esse cillum dolore eu fugiat nulla pariatur.</p>"
      }
    ],
    "tab": "CONTENT",
    "type": "group",
    "default": [
      {
        "title": "What is T2D3?",
        "description": "<p>Lorem ipsum dolor sit amet, consectetur adipiscing elit, sed do eiusmod tempor incididunt ut labore et dolore magna aliqua. Ut enim ad minim veniam, quis nostrud exercitation ullamco laboris nisi ut aliquip ex ea commodo consequat. Duis aute irure dolor in reprehenderit in voluptate velit esse cillum dolore eu fugiat nulla pariatur.</p>"
      },
      {
        "title": "Can I use T2D3 on my phone?",
        "description": "<p>Lorem ipsum dolor sit amet, consectetur adipiscing elit, sed do eiusmod tempor incididunt ut labore et dolore magna aliqua. Ut enim ad minim veniam, quis nostrud exercitation ullamco laboris nisi ut aliquip ex ea commodo consequat. Duis aute irure dolor in reprehenderit in voluptate velit esse cillum dolore eu fugiat nulla pariatur.</p>"
      },
      {
        "title": "Can I change my plan later?",
        "description": "<p>Lorem ipsum dolor sit amet, consectetur adipiscing elit, sed do eiusmod tempor incididunt ut labore et dolore magna aliqua. Ut enim ad minim veniam, quis nostrud exercitation ullamco laboris nisi ut aliquip ex ea commodo consequat. Duis aute irure dolor in reprehenderit in voluptate velit esse cillum dolore eu fugiat nulla pariatur.</p>"
      },
      {
        "title": "What is so great about the Pro plan?",
        "description": "<p>Lorem ipsum dolor sit amet, consectetur adipiscing elit, sed do eiusmod tempor incididunt ut labore et dolore magna aliqua. Ut enim ad minim veniam, quis nostrud exercitation ullamco laboris nisi ut aliquip ex ea commodo consequat. Duis aute irure dolor in reprehenderit in voluptate velit esse cillum dolore eu fugiat nulla pariatur.</p>"
      }
    ]
  }
]
