[
  {
    "id": "31c4db2f-92c1-f152-3acc-d019bc0d6283",
    "name": "image",
    "label": "Image",
    "required": false,
    "locked": false,
    "responsive": true,
    "resizable": false,
    "show_loading": false,
    "type": "image",
    "default": {
      "size_type": "auto",
      "src": "",
      "alt": null
    }
  },
  {
    "id": "preheader",
    "name": "preheader",
    "label": "Preheader",
    "required": false,
    "locked": false,
    "validation_regex": "",
    "allow_new_line": false,
    "show_emoji_picker": false,
    "type": "text",
    "default": ""
  },
  {
    "id": "cb24ff1d-ed51-f76c-180e-f0a742d001c7",
    "name": "content",
    "label": "Content",
    "required": false,
    "locked": false,
    "type": "richtext",
    "default": "<h1>Your marketing team, from the ground up</h1>\n<p>Your pain? We understand. This is why we do what we do, and can provide you with an experience like no other.</p>"
  },
  {
    "id": "c0152a5f-59d7-c85a-fcd3-d4e22037881f",
    "name": "primary_cta",
    "label": "Primary CTA",
    "required": false,
    "locked": false,
    "children": [
      {
        "id": "6b8e8c9c-6ca0-185d-ba80-043566df29ec",
        "name": "type",
        "label": "Type",
        "required": true,
        "locked": false,
        "display": "select",
        "choices": [
          ["btn", "Button"],
          ["cta", "HubSpot CTA"],
          ["none", "None"]
        ],
        "type": "choice",
        "default": "btn"
      },
      {
        "id": "7a528494-617f-50ef-fe9c-9217e135a993",
        "name": "style",
        "label": "Style",
        "required": true,
        "locked": false,
        "display": "select",
        "choices": [
          ["filled", "Filled"],
          ["outlined", "Outlined"],
          ["arrow", "Arrow"]
        ],
        "type": "choice",
        "default": "filled"
      },
      {
        "id": "db76661d-a004-f7ca-3fef-59284b2f9cc4",
        "name": "text",
        "label": "Text",
        "required": false,
        "locked": false,
        "validation_regex": "",
        "visibility": {
          "controlling_field": "6b8e8c9c-6ca0-185d-ba80-043566df29ec",
          "controlling_value_regex": "btn",
          "operator": "EQUAL",
          "access": null,
          "hidden_subfields": null
        },
        "placeholder": "GET STARTED",
        "allow_new_line": false,
        "show_emoji_picker": true,
        "type": "text",
        "default": "GET STARTED"
      },
      {
        "id": "primary_cta.anchor",
        "name": "anchor",
        "label": "Anchor",
        "required": false,
        "locked": false,
        "visibility": {
          "controlling_field": "6b8e8c9c-6ca0-185d-ba80-043566df29ec",
          "controlling_value_regex": "btn",
          "operator": "EQUAL",
          "access": null,
          "hidden_subfields": null
        },
        "children": [
          {
            "id": "primary_cta.anchor.type",
            "name": "type",
            "label": "Type",
            "required": true,
            "locked": false,
            "display": "select",
            "choices": [
              ["href", "Custom Link"],
              ["link", "HubSpot Link"]
            ],
            "type": "choice",
            "default": "href"
          },
          {
            "id": "primary_cta.anchor.link",
            "name": "link",
            "label": "Link",
            "required": false,
            "locked": false,
            "visibility": {
              "controlling_field": "primary_cta.anchor.type",
              "controlling_value_regex": "link",
              "operator": "EQUAL",
              "access": null,
              "hidden_subfields": null
            },
            "supported_types": [
              "EXTERNAL",
              "CONTENT",
              "FILE",
              "EMAIL_ADDRESS",
              "BLOG"
            ],
            "type": "link",
            "default": {
              "url": {
                "content_id": null,
                "type": "EXTERNAL",
                "href": ""
              },
              "open_in_new_tab": false,
              "no_follow": false
            }
          },
          {
            "id": "primary_cta.anchor.href",
            "name": "href",
            "label": "Href",
            "required": false,
            "locked": false,
            "validation_regex": "",
            "visibility": {
              "controlling_field": "primary_cta.anchor.type",
              "controlling_value_regex": "href",
              "operator": "EQUAL",
              "access": null,
              "hidden_subfields": null
            },
            "placeholder": "#",
            "allow_new_line": false,
            "show_emoji_picker": false,
            "type": "text",
            "default": "#"
          }
        ],
        "tab": "CONTENT",
        "expanded": false,
        "type": "group",
        "default": {
          "type": "href",
          "link": {
            "url": {
              "content_id": null,
              "type": "EXTERNAL",
              "href": ""
            },
            "open_in_new_tab": false,
            "no_follow": false
          },
          "href": "#"
        }
      },
      {
        "id": "3152f85e-8420-23da-ad53-ad8693e7eed5",
        "name": "cta",
        "label": "CTA",
        "required": false,
        "locked": false,
        "visibility": {
          "controlling_field": "6b8e8c9c-6ca0-185d-ba80-043566df29ec",
          "controlling_value_regex": "cta",
          "operator": "EQUAL",
          "access": null,
          "hidden_subfields": null
        },
        "type": "cta"
      }
    ],
    "tab": "CONTENT",
    "expanded": false,
    "type": "group",
    "default": {
      "type": "btn",
      "style": "filled",
      "text": "GET STARTED",
      "anchor": {
        "type": "href",
        "link": {
          "url": {
            "content_id": null,
            "type": "EXTERNAL",
            "href": ""
          },
          "open_in_new_tab": false,
          "no_follow": false
        },
        "href": "#"
      }
    }
  },
  {
    "id": "d768f108-1524-7e5c-589d-7dda9db7f67a",
    "name": "secondary_cta",
    "label": "Secondary CTA",
    "required": false,
    "locked": false,
    "children": [
      {
        "id": "280cfa1e-3ef0-0d34-d558-9e60b7430e16",
        "name": "type",
        "label": "Type",
        "required": true,
        "locked": false,
        "display": "select",
        "choices": [
          ["btn", "Button"],
          ["cta", "HubSpot CTA"],
          ["none", "None"]
        ],
        "type": "choice",
        "default": "btn"
      },
      {
        "id": "0666906f-ea7e-2789-a2c8-afbf13404588",
        "name": "style",
        "label": "Style",
        "required": true,
        "locked": false,
        "display": "select",
        "choices": [
          ["filled", "Filled"],
          ["outlined", "Outlined"],
          ["arrow", "Arrow"]
        ],
        "type": "choice",
        "default": "arrow"
      },
      {
        "id": "4a0718fa-ee88-6b0a-7850-b424ac053770",
        "name": "text",
        "label": "Text",
        "required": false,
        "locked": false,
        "validation_regex": "",
        "visibility": {
          "controlling_field": "280cfa1e-3ef0-0d34-d558-9e60b7430e16",
          "controlling_value_regex": "btn",
          "operator": "EQUAL",
          "access": null,
          "hidden_subfields": null
        },
        "placeholder": "LEARN MORE",
        "allow_new_line": false,
        "show_emoji_picker": true,
        "type": "text",
        "default": "LEARN MORE"
      },
      {
        "id": "secondary_cta.anchor",
        "name": "anchor",
        "label": "Anchor",
        "required": false,
        "locked": false,
        "visibility": {
          "controlling_field": "280cfa1e-3ef0-0d34-d558-9e60b7430e16",
          "controlling_value_regex": "btn",
          "operator": "EQUAL",
          "access": null,
          "hidden_subfields": null
        },
        "children": [
          {
            "id": "secondary_cta.anchor.type",
            "name": "type",
            "label": "Type",
            "required": true,
            "locked": false,
            "display": "select",
            "choices": [
              ["href", "Custom Link"],
              ["link", "HubSpot Link"]
            ],
            "type": "choice",
            "default": "href"
          },
          {
            "id": "secondary_cta.anchor.link",
            "name": "link",
            "label": "Link",
            "required": false,
            "locked": false,
            "visibility": {
              "controlling_field": "secondary_cta.anchor.type",
              "controlling_value_regex": "link",
              "operator": "EQUAL",
              "access": null,
              "hidden_subfields": null
            },
            "supported_types": [
              "EXTERNAL",
              "CONTENT",
              "FILE",
              "EMAIL_ADDRESS",
              "BLOG"
            ],
            "type": "link",
            "default": {
              "url": {
                "content_id": null,
                "type": "EXTERNAL",
                "href": ""
              },
              "open_in_new_tab": false,
              "no_follow": false
            }
          },
          {
            "id": "secondary_cta.anchor.href",
            "name": "href",
            "label": "Href",
            "required": false,
            "locked": false,
            "validation_regex": "",
            "visibility": {
              "controlling_field": "secondary_cta.anchor.type",
              "controlling_value_regex": "href",
              "operator": "EQUAL",
              "access": null,
              "hidden_subfields": null
            },
            "placeholder": "#",
            "allow_new_line": false,
            "show_emoji_picker": false,
            "type": "text",
            "default": "#"
          }
        ],
        "tab": "CONTENT",
        "expanded": false,
        "type": "group",
        "default": {
          "type": "href",
          "link": {
            "url": {
              "content_id": null,
              "type": "EXTERNAL",
              "href": ""
            },
            "open_in_new_tab": false,
            "no_follow": false
          },
          "href": "#"
        }
      },
      {
        "id": "secondary_cta.cta",
        "name": "cta",
        "label": "CTA",
        "required": false,
        "locked": false,
        "visibility": {
          "controlling_field": "280cfa1e-3ef0-0d34-d558-9e60b7430e16",
          "controlling_value_regex": "cta",
          "operator": "EQUAL",
          "access": null,
          "hidden_subfields": null
        },
        "type": "cta"
      }
    ],
    "tab": "CONTENT",
    "expanded": false,
    "type": "group",
    "default": {
      "type": "btn",
      "style": "arrow",
      "text": "LEARN MORE",
      "anchor": {
        "type": "href",
        "link": {
          "url": {
            "content_id": null,
            "type": "EXTERNAL",
            "href": ""
          },
          "open_in_new_tab": false,
          "no_follow": false
        },
        "href": "#"
      }
    }
  },
  {
    "id": "93af8462-ceb1-8d7c-3e9b-2af10bf3e199",
    "name": "form",
    "label": "Form",
    "required": false,
    "locked": false,
    "children": [
      {
        "id": "36192c27-c655-1e83-2b9c-d881ed17ea14",
        "name": "enabled",
        "label": "Enabled",
        "required": false,
        "locked": false,
        "display": "checkbox",
        "type": "boolean",
        "default": false
      },
      {
        "id": "e004f59a-5fe7-599e-3948-b2bffe70ea57",
        "name": "selector",
        "label": "Selector",
        "required": false,
        "locked": false,
        "visibility": {
          "controlling_field": "36192c27-c655-1e83-2b9c-d881ed17ea14",
          "controlling_value_regex": "true",
          "operator": "EQUAL",
          "access": null,
          "hidden_subfields": null
        },
        "type": "form",
        "default": {
          "response_type": "inline",
          "message": "Thanks for submitting the form."
        }
      }
    ],
    "tab": "CONTENT",
    "expanded": false,
    "type": "group",
    "default": {
      "enabled": false,
      "selector": {
        "response_type": "inline",
        "message": "Thanks for submitting the form."
      }
    }
  }
]
