[
  {
    "id": "540577ee-bd53-4b82-3898-3c7fe35d0267",
    "name": "cards",
    "label": "Cards",
    "required": false,
    "locked": false,
    "occurrence": {
      "min": null,
      "max": null,
      "sorting_label_field": null,
      "default": 3
    },
    "children": [
      {
        "id": "6de5bf95-ff1b-7dff-4e26-1a58cf32408d",
        "name": "image",
        "label": "Image",
        "required": false,
        "locked": false,
        "responsive": true,
        "resizable": false,
        "show_loading": false,
        "type": "image",
        "default": {
          "size_type": "auto",
          "src": "",
          "alt": null,
          "loading": "disabled"
        }
      },
      {
        "id": "018534d3-9b60-6ba5-7ee7-ac931512f443",
        "name": "preheader",
        "label": "Preheader",
        "required": false,
        "locked": false,
        "validation_regex": "",
        "allow_new_line": false,
        "show_emoji_picker": false,
        "type": "text"
      },
      {
        "id": "174299bf-5c1f-fa32-da81-e8fa8586d9b9",
        "name": "content",
        "label": "Content",
        "required": false,
        "locked": false,
        "type": "richtext",
        "default": "<h3>Mike Northfield</h3>\n<p>Associate CMO<br>Product Lead</p>"
      },
      {
        "id": "cards.link",
        "name": "link",
        "label": "Link",
        "required": false,
        "locked": false,
        "supported_types": [
          "EXTERNAL",
          "CONTENT",
          "FILE",
          "EMAIL_ADDRESS",
          "BLOG"
        ],
        "type": "link",
        "default": {
          "url": {
            "content_id": null,
            "type": "EXTERNAL",
            "href": ""
          },
          "open_in_new_tab": false,
          "no_follow": false
        }
      }
    ],
    "tab": "CONTENT",
    "expanded": false,
    "type": "group",
    "default": [
      {
        "image": {
          "size_type": "auto",
          "src": "",
          "alt": null,
          "loading": "disabled"
        },
        "content": "<h3>Mike Northfield</h3>\n<p>Associate CMO<br>Product Lead</p>"
      },
      {
        "image": {
          "size_type": "auto",
          "src": "",
          "alt": null,
          "loading": "disabled"
        },
        "content": "<h3>Mike Northfield</h3>\n<p>Associate CMO<br>Product Lead</p>"
      },
      {
        "image": {
          "size_type": "auto",
          "src": "",
          "alt": null,
          "loading": "disabled"
        },
        "content": "<h3>Mike Northfield</h3>\n<p>Associate CMO<br>Product Lead</p>"
      }
    ]
  },
  {
    "id": "5fe937e0-d297-ec05-4cbe-30c4df9b528c",
    "name": "overwrite_spacing",
    "label": "Overwrite Spacing",
    "required": false,
    "locked": false,
    "display": "checkbox",
    "type": "boolean",
    "default": false
  },
  {
    "id": "18422b4a-afa4-dc5f-fad3-05dd2a509fce",
    "name": "spacing",
    "label": "Spacing",
    "required": false,
    "locked": false,
    "visibility": {
      "controlling_field": "5fe937e0-d297-ec05-4cbe-30c4df9b528c",
      "controlling_value_regex": "true",
      "operator": "EQUAL",
      "access": null,
      "hidden_subfields": null
    },
    "display": "text",
    "min": 0,
    "step": 1,
    "type": "number",
    "default": 52
  }
]
