<svg width="117" height="40" viewBox="0 0 117 40" fill="none" xmlns="http://www.w3.org/2000/svg">
<path d="M46.4424 7.7793V27.5171L48.9823 27.5365V18.1329H55.1092V15.6511H48.9823V10.2611H56.9511V7.7793H46.4424ZM61.5269 11.7928C62.4381 11.7928 63.1943 11.056 63.1943 10.1253C63.1943 9.19468 62.4575 8.4579 61.5269 8.4579C60.6156 8.4579 59.8594 9.19468 59.8594 10.1253C59.8594 11.056 60.5962 11.7928 61.5269 11.7928ZM60.2278 14.2745V27.5365H62.7677V14.2745H60.2278ZM72.1907 13.8868C68.817 13.8868 66.471 16.7369 66.471 20.13C66.471 23.523 68.817 26.3731 72.1907 26.3731C73.7418 26.3731 75.0021 25.7915 75.9327 24.8027V26.567C75.9521 28.758 74.2071 30.5805 71.9968 30.5999C71.9774 30.5999 71.9774 30.5999 71.958 30.5999C71.1437 30.5999 70.3488 30.2897 69.7089 29.8437L68.4293 32.0541C71.4539 34.0123 75.4868 33.1398 77.4257 30.1152C78.1043 29.0488 78.4727 27.8273 78.4727 26.567V14.2939H75.9327V15.4766C75.0021 14.4878 73.7418 13.8868 72.1907 13.8868ZM69.0109 20.13C69.0109 18.0166 70.6202 16.3685 72.4815 16.3685C74.3429 16.3685 75.9327 18.036 75.9327 20.13C75.9327 22.2433 74.3235 23.872 72.4815 23.872C70.6202 23.872 69.0109 22.2239 69.0109 20.13ZM87.6242 16.3685C86.1119 16.3879 84.8904 17.6288 84.9097 19.1411V27.5171H82.3698V14.2552H84.9097V15.4766C85.6853 14.449 86.8874 13.8674 88.1865 13.8868C89.9702 13.8868 91.3468 14.7593 92.1224 16.1165C93.0143 14.7399 94.5266 13.9062 96.1552 13.8868C99.0442 13.8868 100.847 16.2134 100.847 19.1023V27.5171H98.3268V19.1411C98.3268 17.6288 97.1247 16.3879 95.6124 16.3685C94.1 16.3879 92.8785 17.6288 92.8979 19.1411V27.5171H90.3386V19.1411C90.3386 17.6288 89.1365 16.3879 87.6242 16.3685ZM114.381 15.7675C113.217 14.546 111.589 13.8674 109.902 13.8868C106.121 13.8868 103.445 17.0859 103.445 20.8861C103.445 24.7057 106.121 27.8855 109.902 27.8855C111.589 27.8855 113.198 27.2069 114.381 26.0048V27.5171H116.921V14.2552H114.381V15.7675ZM105.985 20.8861C105.985 18.3656 107.924 16.3491 110.193 16.3491C112.442 16.3685 114.381 18.3656 114.381 20.8861C114.381 23.4067 112.442 25.4037 110.173 25.4037C107.944 25.4231 105.985 23.4261 105.985 20.8861Z" fill="black"/>
<path d="M13.6362 20.0133C13.6362 16.407 16.5639 13.4792 20.1703 13.4792C23.7766 13.4792 26.7043 16.407 26.7043 20.0133C26.7043 23.6196 23.7766 26.5473 20.1703 26.5473C16.5639 26.5473 13.6362 23.6196 13.6362 20.0133Z" fill="#1ABCFE"/>
<path d="M0.587891 33.0621C0.587891 29.4558 3.5156 26.5281 7.12191 26.5281H13.6559V33.0621C13.6559 36.6684 10.7282 39.5961 7.12191 39.5961C3.5156 39.5961 0.587891 36.6684 0.587891 33.0621Z" fill="#0ACF83"/>
<path d="M13.6362 0.430767V13.4794H20.1703C23.7766 13.4794 26.7043 10.5517 26.7043 6.9454C26.7043 3.33909 23.7766 0.411377 20.1703 0.411377H13.6362V0.430767Z" fill="#FF7262"/>
<path d="M0.587891 6.96468C0.587891 10.571 3.5156 13.4987 7.12191 13.4987H13.6559V0.450047H7.12191C3.5156 0.430658 0.587891 3.35836 0.587891 6.96468Z" fill="#F24E1E"/>
<path d="M0.587891 20.0135C0.587891 23.6198 3.5156 26.5475 7.12191 26.5475H13.6559V13.4989H7.12191C3.5156 13.4795 0.587891 16.4072 0.587891 20.0135Z" fill="#A259FF"/>
</svg>
