<svg width="117" height="33" viewBox="0 0 117 33" fill="none" xmlns="http://www.w3.org/2000/svg">
<g clip-path="url(#clip0)">
<path d="M12.6413 5.11865V14.2085H4.12317V5.11865H0.0791016V26.8171H4.12317V18.0223H12.6413V26.8171H16.6853V5.11865H12.6413Z" fill="#33475B"/>
<path d="M29.6279 19.803C29.6279 20.6726 29.2754 21.5066 28.6479 22.1215C28.0205 22.7364 27.1695 23.0819 26.2822 23.0819C25.3949 23.0819 24.5439 22.7364 23.9165 22.1215C23.2891 21.5066 22.9366 20.6726 22.9366 19.803V10.5093H19.1006V19.803C19.1006 21.6679 19.8565 23.4564 21.202 24.7751C22.5475 26.0937 24.3724 26.8345 26.2753 26.8345C28.1781 26.8345 30.0031 26.0937 31.3486 24.7751C32.6941 23.4564 33.45 21.6679 33.45 19.803V10.5093H29.6279V19.803Z" fill="#33475B"/>
<path d="M58.0495 11.4666C58.0495 9.56164 59.3354 8.95772 60.7442 8.95772C61.8796 8.95772 63.3795 9.80437 64.3603 10.8316L66.8728 7.93047C65.6185 6.26824 63.0744 5.11865 60.9919 5.11865C56.8309 5.11865 53.8212 7.50715 53.8212 11.4666C53.8212 18.8127 62.9832 16.4824 62.9832 20.5934C62.9832 21.8614 61.727 22.9819 60.2885 22.9819C58.0198 22.9819 57.2847 21.8944 56.2424 20.7448L53.4546 23.5858C55.2379 25.7316 57.4372 26.8209 60.0725 26.8209C64.0255 26.8209 67.2056 24.4033 67.2056 20.6244C67.2056 12.4686 58.0436 15.0027 58.0436 11.4666" fill="#33475B"/>
<path d="M114.729 23.351C112.463 23.351 111.819 22.3898 111.819 20.9178V14.4029H115.342V11.1017H111.819V6.74609L107.929 8.45688V21.7276C107.929 25.122 110.319 26.8327 113.596 26.8327C114.11 26.8419 114.624 26.8016 115.13 26.7123L116.079 23.2888C115.651 23.318 115.159 23.3471 114.729 23.3471" fill="#33475B"/>
<path d="M44.2286 10.618C42.3284 10.618 41.0029 11.1579 39.7209 12.391V5.24878H35.8789V18.4865C35.8789 23.4421 39.5346 26.8365 43.6421 26.8365C48.1994 26.8365 52.2078 23.3819 52.2078 18.7292C52.2078 14.1348 48.5184 10.62 44.2286 10.62V10.618ZM44.2048 23.0479C43.3427 23.0479 42.4999 22.7974 41.783 22.3279C41.0662 21.8585 40.5075 21.1913 40.1775 20.4107C39.8476 19.6301 39.7613 18.7711 39.9295 17.9424C40.0977 17.1137 40.5128 16.3524 41.1225 15.755C41.7321 15.1575 42.5088 14.7506 43.3544 14.5858C44.2 14.421 45.0765 14.5056 45.873 14.8289C46.6695 15.1523 47.3503 15.6998 47.8293 16.4024C48.3083 17.1049 48.5639 17.9309 48.5639 18.7758C48.5639 19.9088 48.1047 20.9955 47.2872 21.7966C46.4697 22.5978 45.3609 23.0479 44.2048 23.0479Z" fill="#33475B"/>
<path d="M85.9455 18.5311C85.9455 13.8706 81.9451 10.4238 77.3799 10.4238C73.2724 10.4238 69.6167 13.8182 69.6167 18.7739V32.0193H73.4587V24.8674C74.7387 26.0986 76.0662 26.6404 77.9644 26.6404C82.2542 26.6404 85.9436 23.1275 85.9436 18.5311H85.9455ZM82.3077 18.4845C82.3077 19.3295 82.052 20.1554 81.573 20.858C81.094 21.5605 80.4132 22.1081 79.6167 22.4314C78.8202 22.7548 77.9437 22.8394 77.0981 22.6745C76.2525 22.5097 75.4758 22.1028 74.8662 21.5053C74.2566 20.9079 73.8414 20.1467 73.6732 19.318C73.505 18.4893 73.5913 17.6303 73.9213 16.8496C74.2512 16.069 74.8099 15.4018 75.5268 14.9324C76.2436 14.463 77.0864 14.2124 77.9485 14.2124C79.1047 14.2124 80.2134 14.6625 81.0309 15.4637C81.8484 16.2649 82.3077 17.3515 82.3077 18.4845Z" fill="#33475B"/>
<path d="M98.3195 10.3636V6.61964C98.8243 6.38856 99.2518 6.02164 99.5521 5.56165C99.8523 5.10165 100.013 4.5675 100.016 4.02143V3.93404C100.013 3.17091 99.7032 2.43961 99.1526 1.89999C98.602 1.36037 97.8558 1.05631 97.0771 1.05426H96.9879C96.2093 1.05631 95.4631 1.36037 94.9125 1.89999C94.3619 2.43961 94.0516 3.17091 94.0495 3.93404V4.02143C94.052 4.5675 94.2127 5.10165 94.513 5.56165C94.8133 6.02164 95.2407 6.38856 95.7456 6.61964V10.3636C94.2941 10.5811 92.927 11.1706 91.7828 12.0724L81.2932 4.07386C81.3678 3.81 81.4078 3.53788 81.412 3.2641C81.4128 2.62156 81.2192 1.99322 80.8556 1.45854C80.492 0.923864 79.9748 0.506858 79.3694 0.26026C78.7639 0.013661 78.0975 -0.0514555 77.4543 0.0731445C76.8111 0.197744 76.2201 0.506465 75.7559 0.960266C75.2918 1.41407 74.9754 1.99257 74.8467 2.62261C74.718 3.25265 74.7829 3.90594 75.033 4.49987C75.2832 5.09379 75.7075 5.60167 76.2522 5.95929C76.7969 6.3169 77.4375 6.50819 78.0932 6.50896C78.6691 6.50685 79.2342 6.35616 79.7318 6.07204L90.0451 13.9405C89.1161 15.3139 88.6315 16.9301 88.6545 18.5777C88.6775 20.2254 89.207 21.8279 90.1739 23.176L87.0353 26.2519C86.7833 26.1733 86.521 26.1314 86.2566 26.1276C85.7178 26.1276 85.191 26.2842 84.743 26.5776C84.2949 26.871 83.9457 27.288 83.7395 27.7759C83.5333 28.2638 83.4794 28.8007 83.5845 29.3186C83.6896 29.8365 83.9491 30.3123 84.3301 30.6857C84.7111 31.0591 85.1966 31.3134 85.7251 31.4165C86.2536 31.5195 86.8014 31.4666 87.2992 31.2645C87.797 31.0624 88.2225 30.7202 88.5219 30.2811C88.8213 29.842 88.981 29.3258 88.981 28.7977C88.9774 28.5386 88.9347 28.2814 88.8542 28.0345L91.9591 24.9916C92.9726 25.7503 94.1496 26.2721 95.4003 26.517C96.6509 26.7619 97.9421 26.7235 99.1753 26.4048C100.409 26.0861 101.551 25.4955 102.516 24.678C103.481 23.8605 104.242 22.8378 104.742 21.6879C105.242 20.538 105.467 19.2914 105.401 18.0432C105.334 16.795 104.977 15.5782 104.358 14.4857C103.738 13.3933 102.872 12.4539 101.826 11.7395C100.779 11.0251 99.5799 10.5545 98.3195 10.3636ZM97.0335 22.6789C96.1839 22.6789 95.3534 22.432 94.6469 21.9694C93.9405 21.5068 93.3899 20.8493 93.0648 20.08C92.7397 19.3107 92.6546 18.4642 92.8204 17.6476C92.9861 16.8309 93.3952 16.0808 93.996 15.492C94.5968 14.9032 95.3622 14.5023 96.1955 14.3398C97.0288 14.1774 97.8925 14.2608 98.6774 14.5794C99.4624 14.898 100.133 15.4376 100.605 16.13C101.077 16.8223 101.329 17.6363 101.329 18.4689C101.329 19.5855 100.877 20.6563 100.071 21.4458C99.2654 22.2353 98.1728 22.6789 97.0335 22.6789Z" fill="#FF7A59"/>
</g>
<defs>
<clipPath id="clip0">
<rect width="116" height="32" fill="white" transform="translate(0.0791016 0.0114746)"/>
</clipPath>
</defs>
</svg>
